…
```r
week_df %>% 
  count(geo, max_days_cant_smell)
```

```
## # A tibble: 27 x 3
## # Groups:   geo [27]
##    geo   max_days_cant_smell     n
##    <chr>               <int> <int>
##  1 BR-AC                  NA    26
##  2 BR-AL                   1    26
##  3 BR-AM                   4    26
##  4 BR-AP                  NA    26
##  5 BR-BA                   5    26
##  6 BR-CE                   3    26
##  7 BR-DF                  NA    26
##  8 BR-ES                   2    26
##  9 BR-GO                   1    26
## 10 BR-MA                   2    26
## # ... with 17 more rows
```
…
