…
There are 2 datasets we want to compare, which were computed at the beginning: states_cant_smell_date, date_5_deaths. 
States_cant_smell_date: includes the first date in which a state shows up under "I can't smell", and a ranking of all states
date_5_deaths: includes the first date in which a state has 10 deaths, and a ranking of all states

We first need to merge them by state


```r
date_10_deaths %>% 
  left_join(states_cant_smell_date, by = "state")
```

```
## # A tibble: 26 x 5
##    state     date_death_10 ranking_death_10 first_date_cant_sm~ ranking_cant_sm~
##    <fct>     <date>                   <dbl> <date>                         <dbl>
##  1 Acre      2020-04-24                20   NA                              NA  
##  2 Alagoas   2020-04-20                18   2020-04-30                      10  
##  3 Amapá     2020-04-20                18   NA                              NA  
##  4 Amazonas  2020-04-04                 4.5 2020-03-27                       2  
##  5 Bahia     2020-04-08                 9   2020-04-26                       8  
##  6 Ceará     2020-04-02                 3   2020-03-29                       3.5
##  7 Espírito~ 2020-04-14                16   NA                              NA  
##  8 Goiás     2020-04-12                14.5 NA                              NA  
##  9 Maranhão  2020-04-08                 9   2020-04-16                       6.5
## 10 Mato Gro~ 2020-04-28                22   NA                              NA  
## # ... with 16 more rows
```
…
